test.vcd
$date
	Fri Nov 21 15:19:18 2025
$end
$version
	Icarus Verilog
$end
$timescale
	1ns
$end
$scope module tb $end
$var wire 32 ! WriteData [31:0] $end
$var wire 1 " MemWrite $end
$var wire 32 # DataAdr [31:0] $end
$var reg 1 $ clk $end
$var reg 1 % reset $end
$scope module a $end
$var wire 1 $ clk $end
$var wire 1 % reset $end
$var wire 32 & WriteData [31:0] $end
$var wire 32 ' ReadData [31:0] $end
$var wire 32 ( PC [31:0] $end
$var wire 1 " MemWrite $end
$var wire 32 ) Instr [31:0] $end
$var wire 32 * DataAdr [31:0] $end
$scope module dmem $end
$var wire 1 $ clk $end
$var wire 32 + rd [31:0] $end
$var wire 1 " we $end
$var wire 32 , wd [31:0] $end
$var wire 32 - a [31:0] $end
$upscope $end
$scope module imem $end
$var wire 32 . rd [31:0] $end
$var wire 32 / a [31:0] $end
$var integer 32 0 j [31:0] $end
$upscope $end
$scope module rvsingle $end
$var wire 32 1 DataAdr [31:0] $end
$var wire 32 2 Instr [31:0] $end
$var wire 1 " MemWrite $end
$var wire 32 3 PC [31:0] $end
$var wire 32 4 ReadData [31:0] $end
$var wire 32 5 WriteData [31:0] $end
$var wire 1 $ clk $end
$var wire 1 % reset $end
$var wire 1 6 ZeroE $end
$var wire 32 7 WriteDataM [31:0] $end
$var wire 1 8 StallF $end
$var wire 1 9 StallD $end
$var wire 5 : Rs2E [4:0] $end
$var wire 5 ; Rs2D [4:0] $end
$var wire 5 < Rs1E [4:0] $end
$var wire 5 = Rs1D [4:0] $end
$var wire 2 > ResultSrcW [1:0] $end
$var wire 1 ? ResultSrcE0out $end
$var wire 1 @ ResultSrcE0 $end
$var wire 2 A ResultSrcD [1:0] $end
$var wire 1 B RegWriteWout $end
$var wire 1 C RegWriteW $end
$var wire 1 D RegWriteMout $end
$var wire 1 E RegWriteM $end
$var wire 1 F RegWriteD $end
$var wire 5 G RdW [4:0] $end
$var wire 5 H RdM [4:0] $end
$var wire 5 I RdE [4:0] $end
$var wire 1 J PCSrcEout $end
$var wire 1 K PCSrcE $end
$var wire 32 L PCF [31:0] $end
$var wire 1 M MemWriteM $end
$var wire 1 N MemWriteD $end
$var wire 1 O JumpD $end
$var wire 32 P InstrD [31:0] $end
$var wire 2 Q ImmSrcDin [1:0] $end
$var wire 2 R ImmSrcD [1:0] $end
$var wire 2 S ForwardBE [1:0] $end
$var wire 2 T ForwardAE [1:0] $end
$var wire 1 U FlushE $end
$var wire 1 V FlushD $end
$var wire 1 W BranchD $end
$var wire 1 X ALUSrcE $end
$var wire 1 Y ALUSrcD $end
$var wire 32 Z ALUResultM [31:0] $end
$var wire 3 [ ALUControlE [2:0] $end
$var wire 3 \ ALUControlD [2:0] $end
$var integer 32 ] cycle [31:0] $end
$scope module c $end
$var wire 3 ^ funct3 [2:0] $end
$var wire 1 _ funct7b5 $end
$var wire 7 ` op [6:0] $end
$var wire 2 a ResultSrcD [1:0] $end
$var wire 1 F RegWriteD $end
$var wire 1 N MemWriteD $end
$var wire 1 O JumpD $end
$var wire 2 b ImmSrcD [1:0] $end
$var wire 1 W BranchD $end
$var wire 1 Y ALUSrcD $end
$var wire 2 c ALUOp [1:0] $end
$var wire 3 d ALUControlD [2:0] $end
$scope module ad $end
$var wire 3 e ALUControl [2:0] $end
$var wire 1 f RtypeSub $end
$var wire 3 g funct3 [2:0] $end
$var wire 1 _ funct7b5 $end
$var wire 1 h opb5 $end
$var wire 2 i ALUOp [1:0] $end
$var reg 3 j ALUControl_reg [2:0] $end
$upscope $end
$scope module md $end
$var wire 7 k op [6:0] $end
$var wire 2 l ResultSrc [1:0] $end
$var wire 1 F RegWrite $end
$var wire 1 N MemWrite $end
$var wire 1 O Jump $end
$var wire 2 m ImmSrc [1:0] $end
$var wire 1 W Branch $end
$var wire 1 Y ALUSrc $end
$var wire 2 n ALUOp [1:0] $end
$var reg 11 o controls [10:0] $end
$upscope $end
$upscope $end
$scope module cr $end
$var wire 3 p ALUControlD [2:0] $end
$var wire 1 Y ALUSrcD $end
$var wire 1 W BranchD $end
$var wire 2 q ImmSrc [1:0] $end
$var wire 2 r ImmSrcD [1:0] $end
$var wire 1 O JumpD $end
$var wire 1 N MemWriteD $end
$var wire 1 K PCSrcE $end
$var wire 1 F RegWriteD $end
$var wire 2 s ResultSrcD [1:0] $end
$var wire 1 $ clk $end
$var wire 1 % reset $end
$var wire 1 6 ZeroE $end
$var wire 1 @ ResultSrcE0 $end
$var reg 3 t ALUControlE [2:0] $end
$var reg 1 X ALUSrcE $end
$var reg 1 u BranchE $end
$var reg 1 v JumpE $end
$var reg 1 w MemWriteE $end
$var reg 1 M MemWriteM $end
$var reg 1 x RegWriteE $end
$var reg 1 E RegWriteM $end
$var reg 1 C RegWriteW $end
$var reg 2 y ResultSrcE [1:0] $end
$var reg 2 z ResultSrcM [1:0] $end
$var reg 2 { ResultSrcW [1:0] $end
$upscope $end
$scope module dp $end
$var wire 3 | ALUControlE [2:0] $end
$var wire 1 X ALUSrcE $end
$var wire 2 } ImmSrcD [1:0] $end
$var wire 32 ~ Instr [31:0] $end
$var wire 1 M MemWriteM $end
$var wire 1 K PCSrcE $end
$var wire 1 J PCSrcEout $end
$var wire 1 @ RSE0in $end
$var wire 1 ? RSE0out $end
$var wire 32 !" ReadData [31:0] $end
$var wire 1 E RegWriteM $end
$var wire 1 D RegWriteMout $end
$var wire 1 C RegWriteW $end
$var wire 1 B RegWriteWout $end
$var wire 2 "" ResultSrcW [1:0] $end
$var wire 1 $ clk $end
$var wire 1 % reset $end
$var wire 1 6 ZeroE $end
$var wire 32 #" WriteDataE [31:0] $end
$var wire 1 8 StallF $end
$var wire 1 9 StallD $end
$var wire 32 $" SrcBE [31:0] $end
$var wire 32 %" SrcAE [31:0] $end
$var wire 5 &" Rs2D [4:0] $end
$var wire 5 '" Rs1D [4:0] $end
$var wire 32 (" ResultW [31:0] $end
$var wire 5 )" RdD [4:0] $end
$var wire 32 *" RFRD2 [31:0] $end
$var wire 32 +" RFRD1 [31:0] $end
$var wire 32 ," PCTargetE [31:0] $end
$var wire 32 -" PCPlus4F [31:0] $end
$var wire 32 ." PCFprime [31:0] $end
$var wire 32 /" ImmExtD [31:0] $end
$var wire 2 0" ForwardBE [1:0] $end
$var wire 2 1" ForwardAE [1:0] $end
$var wire 1 U FlushE $end
$var wire 1 V FlushD $end
$var wire 32 2" ALUResultE [31:0] $end
$var parameter 32 3" WIDTH $end
$var reg 32 4" ALUResultM [31:0] $end
$var reg 32 5" ALUResultW [31:0] $end
$var reg 32 6" ImmExtE [31:0] $end
$var reg 32 7" InstrD [31:0] $end
$var reg 32 8" PCD [31:0] $end
$var reg 32 9" PCE [31:0] $end
$var reg 32 :" PCF [31:0] $end
$var reg 32 ;" PCPlus4D [31:0] $end
$var reg 32 <" PCPlus4E [31:0] $end
$var reg 32 =" PCPlus4M [31:0] $end
$var reg 32 >" PCPlus4W [31:0] $end
$var reg 32 ?" RD1E [31:0] $end
$var reg 32 @" RD2E [31:0] $end
$var reg 5 A" RdE [4:0] $end
$var reg 5 B" RdM [4:0] $end
$var reg 5 C" RdW [4:0] $end
$var reg 32 D" ReadDataW [31:0] $end
$var reg 5 E" Rs1E [4:0] $end
$var reg 5 F" Rs2E [4:0] $end
$var reg 32 G" WriteDataM [31:0] $end
$scope module alu $end
$var wire 3 H" alucontrol [2:0] $end
$var wire 1 I" isAddSub $end
$var wire 1 J" v $end
$var wire 1 6 zero $end
$var wire 32 K" sum [31:0] $end
$var wire 32 L" result [31:0] $end
$var wire 32 M" condinvb [31:0] $end
$var wire 32 N" b [31:0] $end
$var wire 32 O" a [31:0] $end
$var reg 32 P" result_reg [31:0] $end
$upscope $end
$scope module ext $end
$var wire 32 Q" immext [31:0] $end
$var wire 2 R" immsrc [1:0] $end
$var wire 25 S" instr [31:7] $end
$var reg 32 T" immext_reg [31:0] $end
$upscope $end
$scope module forwardamux $end
$var wire 32 U" d0 [31:0] $end
$var wire 32 V" d2 [31:0] $end
$var wire 32 W" y [31:0] $end
$var wire 2 X" s [1:0] $end
$var wire 32 Y" d1 [31:0] $end
$var parameter 32 Z" WIDTH $end
$upscope $end
$scope module forwardbmux $end
$var wire 32 [" d0 [31:0] $end
$var wire 32 \" d2 [31:0] $end
$var wire 32 ]" y [31:0] $end
$var wire 2 ^" s [1:0] $end
$var wire 32 _" d1 [31:0] $end
$var parameter 32 `" WIDTH $end
$upscope $end
$scope module pcadd4 $end
$var wire 32 a" a [31:0] $end
$var wire 32 b" b [31:0] $end
$var wire 32 c" y [31:0] $end
$upscope $end
$scope module pcaddbranch $end
$var wire 32 d" a [31:0] $end
$var wire 32 e" b [31:0] $end
$var wire 32 f" y [31:0] $end
$upscope $end
$scope module pcmux $end
$var wire 32 g" d0 [31:0] $end
$var wire 32 h" d1 [31:0] $end
$var wire 1 K s $end
$var wire 32 i" y [31:0] $end
$var parameter 32 j" WIDTH $end
$upscope $end
$scope module resultmux $end
$var wire 32 k" d0 [31:0] $end
$var wire 32 l" d1 [31:0] $end
$var wire 32 m" d2 [31:0] $end
$var wire 2 n" s [1:0] $end
$var wire 32 o" y [31:0] $end
$var parameter 32 p" WIDTH $end
$upscope $end
$scope module rf $end
$var wire 5 q" a1 [4:0] $end
$var wire 5 r" a2 [4:0] $end
$var wire 5 s" a3 [4:0] $end
$var wire 1 $ clk $end
$var wire 1 % reset $end
$var wire 32 t" wd3 [31:0] $end
$var wire 1 C we3 $end
$var wire 32 u" rd2 [31:0] $end
$var wire 32 v" rd1 [31:0] $end
$var integer 32 w" i [31:0] $end
$upscope $end
$scope module srcbmux $end
$var wire 32 x" d0 [31:0] $end
$var wire 32 y" d1 [31:0] $end
$var wire 1 X s $end
$var wire 32 z" y [31:0] $end
$var parameter 32 {" WIDTH $end
$upscope $end
$upscope $end
$scope module h $end
$var wire 1 V FlushD $end
$var wire 1 U FlushE $end
$var wire 1 J PCSrcE $end
$var wire 5 |" RdE [4:0] $end
$var wire 5 }" RdM [4:0] $end
$var wire 5 ~" RdW [4:0] $end
$var wire 1 D RegWriteM $end
$var wire 1 B RegWriteW $end
$var wire 1 ? ResultSrcE0 $end
$var wire 5 !# Rs1D [4:0] $end
$var wire 5 "# Rs1E [4:0] $end
$var wire 5 ## Rs2D [4:0] $end
$var wire 5 $# Rs2E [4:0] $end
$var wire 1 9 StallD $end
$var wire 1 8 StallF $end
$var wire 1 %# lwStall $end
$var wire 2 &# ForwardBE [1:0] $end
$var wire 2 '# ForwardAE [1:0] $end
$upscope $end
$upscope $end
$upscope $end
$upscope $end
$enddefinitions $end
$comment Show the parameter values. $end
$dumpall
b100000 {"
b100000 p"
b100000 j"
b100000 `"
b100000 Z"
b100000 3"
$end
#0
$dumpvars
b0 '#
b0 &#
0%#
b0 $#
b0 ##
b0 "#
b0 !#
b0 ~"
b0 }"
b0 |"
b0 z"
b0 y"
b0 x"
bx w"
b0 v"
b0 u"
b0 t"
b0 s"
b0 r"
b0 q"
b0 o"
b0 n"
b0 m"
b0 l"
b0 k"
b100 i"
b0 h"
b100 g"
b0 f"
b0 e"
b0 d"
b100 c"
b100 b"
b0 a"
b0 _"
b0 ^"
b0 ]"
b0 \"
b0 ["
b0 Y"
b0 X"
b0 W"
b0 V"
b0 U"
b0 T"
b0 S"
b0 R"
b0 Q"
b0 P"
b0 O"
b0 N"
b0 M"
b0 L"
b0 K"
0J"
1I"
b0 H"
b0 G"
b0 F"
b0 E"
b0 D"
b0 C"
b0 B"
b0 A"
b0 @"
b0 ?"
b0 >"
b0 ="
b0 <"
b0 ;"
b0 :"
b0 9"
b0 8"
b0 7"
b0 6"
b0 5"
b0 4"
b0 2"
b0 1"
b0 0"
b0 /"
b100 ."
b100 -"
b0 ,"
b0 +"
b0 *"
b0 )"
b0 ("
b0 '"
b0 &"
b0 %"
b0 $"
b0 #"
b0 ""
bx !"
b10100000000000100010011 ~
b0 }
b0 |
b0 {
b0 z
b0 y
0x
0w
0v
0u
b0 t
b0 s
b0 r
b0 q
b0 p
b0 o
b0 n
b0 m
b0 l
b0 k
b0 j
b0 i
0h
b0 g
0f
b0 e
b0 d
b0 c
b0 b
b0 a
b0 `
0_
b0 ^
b1 ]
b0 \
b0 [
b0 Z
0Y
0X
0W
0V
0U
b0 T
b0 S
b0 R
b0 Q
b0 P
0O
0N
0M
b0 L
0K
0J
b0 I
b0 H
b0 G
0F
0E
0D
0C
0B
b0 A
0@
0?
b0 >
b0 =
b0 <
b0 ;
b0 :
09
08
b0 7
16
b0 5
bx 4
b0 3
b10100000000000100010011 2
b0 1
b1000000 0
b0 /
b10100000000000100010011 .
b0 -
b0 ,
bx +
b0 *
b10100000000000100010011 )
b0 (
bx '
b0 &
1%
1$
b0 #
0"
b0 !
$end
#5
b100000 w"
0$
#10
1F
1Y
b10 c
b10 i
b10 n
b10010000100 o
b101 /"
b101 Q"
b101 T"
b101 r"
b10 )"
b101 ;
b101 &"
b101 ##
b1010000000000010 S"
b10011 `
b10011 k
b1000 ."
b1000 i"
b110000000000000110010011 )
b110000000000000110010011 .
b110000000000000110010011 2
b110000000000000110010011 ~
bx D"
bx l"
b100 ;"
b10100000000000100010011 P
b10100000000000100010011 7"
b1000 -"
b1000 c"
b1000 g"
b100 (
b100 /
b100 3
b100 L
b100 :"
b100 a"
b10 ]
1$
0%
#15
0$
#20
06
b101 2"
b101 L"
b101 P"
b101 K"
b101 M"
b1100 /"
b1100 Q"
b1100 T"
b101 $"
b101 N"
b101 z"
b1100 r"
b11 )"
b1100 ;
b1100 &"
b1100 ##
b11000000000000011 S"
b1100 ."
b1100 i"
b11111111011100011000001110010011 )
b11111111011100011000001110010011 .
b11111111011100011000001110010011 2
b11111111011100011000001110010011 ~
1X
1x
b100 <"
b101 ,"
b101 f"
b101 h"
b101 6"
b101 e"
b101 y"
b10 I
b10 A"
b10 |"
b101 :
b101 F"
b101 $#
b1000 ;"
b100 8"
b110000000000000110010011 P
b110000000000000110010011 7"
b1100 -"
b1100 c"
b1100 g"
b1000 (
b1000 /
b1000 3
b1000 L
b1000 :"
b1000 a"
b11 ]
1$
#25
0$
#30
b1100 2"
b1100 L"
b1100 P"
b1100 K"
b1100 M"
b11111111111111111111111111110111 /"
b11111111111111111111111111110111 Q"
b11111111111111111111111111110111 T"
b1100 $"
b1100 N"
b1100 z"
b11 q"
b10111 r"
b111 )"
b11 =
b11 '"
b11 !#
b10111 ;
b10111 &"
b10111 ##
b1111111101110001100000111 S"
1_
b10000 ."
b10000 i"
b1000111110001000110011 )
b1000111110001000110011 .
b1000111110001000110011 2
b1000111110001000110011 ~
b100 ="
b10 H
b10 B"
b10 }"
b101 #
b101 *
b101 -
b101 1
b101 Z
b101 4"
b101 V"
b101 \"
b1000 <"
b1100 6"
b1100 e"
b1100 y"
b11 I
b11 A"
b11 |"
b1100 :
b1100 F"
b1100 $#
b10000 ,"
b10000 f"
b10000 h"
b100 9"
b100 d"
b1100 ;"
b1000 8"
b11111111011100011000001110010011 P
b11111111011100011000001110010011 7"
b10000 -"
b10000 c"
b10000 g"
b1100 (
b1100 /
b1100 3
b1100 L
b1100 :"
b1100 a"
1D
1E
b100 ]
1$
#35
0$
#40
bx R
bx r
bx }
bx R"
bx Q
bx b
bx m
bx q
0Y
b1xx00000100 o
b1100 %"
b1100 O"
b1100 W"
b11 2"
b11 L"
b11 P"
b101 ("
b101 Y"
b101 _"
b101 o"
b101 t"
b10 T
b10 1"
b10 X"
b10 '#
b11 K"
b11111111111111111111111111110111 M"
bx /"
bx Q"
bx T"
b11 \
b11 d
b11 e
b11 p
b11 j
1h
b11111111111111111111111111110111 $"
b11111111111111111111111111110111 N"
b11111111111111111111111111110111 z"
b111 q"
b10 r"
b100 )"
b111 =
b111 '"
b111 !#
b10 ;
b10 &"
b10 ##
b100011111000100 S"
0_
b110 ^
b110 g
b110011 `
b110011 k
b10100 ."
b10100 i"
b10000011111001010110011 )
b10000011111001010110011 .
b10000011111001010110011 2
b10000011111001010110011 ~
1B
1C
b100 >"
b100 m"
b10 G
b10 C"
b10 s"
b10 ~"
b101 5"
b101 k"
b1000 ="
b11 H
b11 B"
b11 }"
b1100 #
b1100 *
b1100 -
b1100 1
b1100 Z
b1100 4"
b1100 V"
b1100 \"
b1100 <"
b11111111111111111111111111110111 6"
b11111111111111111111111111110111 e"
b11111111111111111111111111110111 y"
b111 I
b111 A"
b111 |"
b10111 :
b10111 F"
b10111 $#
b11 <
b11 E"
b11 "#
b11111111111111111111111111111111 ,"
b11111111111111111111111111111111 f"
b11111111111111111111111111111111 h"
b1000 9"
b1000 d"
b10000 ;"
b1100 8"
b1000111110001000110011 P
b1000111110001000110011 7"
b10100 -"
b10100 c"
b10100 g"
b10000 (
b10000 /
b10000 3
b10000 L
b10000 :"
b10000 a"
b101 ]
1$
#45
b101 *"
b101 u"
0$
#50
0I"
b1100 ("
b1100 Y"
b1100 _"
b1100 o"
b1100 t"
b101 #"
b101 ]"
b101 x"
b0 *"
b0 u"
b10 \
b10 d
b10 e
b10 p
b10 j
b11111111111111111111111111111010 M"
b11 %"
b11 O"
b11 W"
b11 q"
b100 r"
b101 )"
b11 =
b11 '"
b11 !#
b100 ;
b100 &"
b100 ##
b1000001111100101 S"
b111 ^
b111 g
b11000 ."
b11000 i"
b10000101000001010110011 )
b10000101000001010110011 .
b10000101000001010110011 2
b10000101000001010110011 ~
b101 $"
b101 N"
b101 z"
b111 2"
b111 L"
b111 P"
b11111111111111111111111111111110 K"
b1000 >"
b1000 m"
b11 G
b11 C"
b11 s"
b11 ~"
b1100 5"
b1100 k"
b1100 ="
b111 H
b111 B"
b111 }"
b11 #
b11 *
b11 -
b11 1
b11 Z
b11 4"
b11 V"
b11 \"
b10000 <"
bx 6"
bx e"
bx y"
b100 I
b100 A"
b100 |"
b10 :
b10 F"
b10 $#
b111 <
b111 E"
b111 "#
bx ,"
bx f"
bx h"
b1100 9"
b1100 d"
b101 @"
b101 ["
b10100 ;"
b10000 8"
b10000011111001010110011 P
b10000011111001010110011 7"
b11000 -"
b11000 c"
b11000 g"
b10100 (
b10100 /
b10100 3
b10100 L
b10100 :"
b10100 a"
0X
b11 [
b11 t
b11 |
b11 H"
b110 ]
1$
#55
b1100 +"
b1100 v"
0$
#60
06
b111 $"
b111 N"
b111 z"
b111 M"
b11 ("
b11 Y"
b11 _"
b11 o"
b11 t"
b10 S
b10 0"
b10 ^"
b10 &#
b0 T
b0 1"
b0 X"
b0 '#
b111 #"
b111 ]"
b111 x"
b0 +"
b0 v"
b0 \
b0 d
b0 e
b0 p
b0 j
b100 2"
b100 L"
b100 P"
b10011 K"
b1100 %"
b1100 O"
b1100 W"
b101 q"
b101 =
b101 '"
b101 !#
b1000010100000101 S"
b0 ^
b0 g
b11100 ."
b11100 i"
b10011100101000100001100011 )
b10011100101000100001100011 .
b10011100101000100001100011 2
b10011100101000100001100011 ~
b10 [
b10 t
b10 |
b10 H"
b1100 >"
b1100 m"
b111 G
b111 C"
b111 s"
b111 ~"
b11 5"
b11 k"
b10000 ="
b100 H
b100 B"
b100 }"
b101 !
b101 &
b101 ,
b101 5
b101 7
b101 G"
b111 #
b111 *
b111 -
b111 1
b111 Z
b111 4"
b111 V"
b111 \"
b10100 <"
b101 I
b101 A"
b101 |"
b100 :
b100 F"
b100 $#
b11 <
b11 E"
b11 "#
b10000 9"
b10000 d"
b0 @"
b0 ["
b1100 ?"
b1100 U"
b11000 ;"
b10100 8"
b10000101000001010110011 P
b10000101000001010110011 7"
b11100 -"
b11100 c"
b11100 g"
b11000 (
b11000 /
b11000 3
b11000 L
b11000 :"
b11000 a"
b111 ]
1$
#65
0$
#70
b110000 /"
b110000 Q"
b110000 T"
b1 \
b1 d
b1 e
b1 p
b1 j
0F
b10 R
b10 r
b10 }
b10 R"
b10 Q
b10 b
b10 m
b10 q
1W
b1 c
b1 i
b1 n
b1000001010 o
1I"
b111 M"
b111 ("
b111 Y"
b111 _"
b111 o"
b111 t"
b10 T
b10 1"
b10 X"
b10 '#
b1 S
b1 0"
b1 ^"
b1 &#
b111 $"
b111 N"
b111 z"
b1011 K"
b100 %"
b100 O"
b100 W"
b11 *"
b11 u"
b111 #"
b111 ]"
b111 x"
b111 r"
b10000 )"
b111 ;
b111 &"
b111 ##
b1001110010100010000 S"
b1100011 `
b1100011 k
b100000 ."
b100000 i"
b10000011010001000110011 )
b10000011010001000110011 .
b10000011010001000110011 2
b10000011010001000110011 ~
b1011 2"
b1011 L"
b1011 P"
b10000 >"
b10000 m"
b100 G
b100 C"
b100 s"
b100 ~"
b111 5"
b111 k"
b10100 ="
b101 H
b101 B"
b101 }"
b111 !
b111 &
b111 ,
b111 5
b111 7
b111 G"
b100 #
b100 *
b100 -
b100 1
b100 Z
b100 4"
b100 V"
b100 \"
b11000 <"
b101 <
b101 E"
b101 "#
b10100 9"
b10100 d"
b0 ?"
b0 U"
b11100 ;"
b11000 8"
b10011100101000100001100011 P
b10011100101000100001100011 7"
b100000 -"
b100000 c"
b100000 g"
b11100 (
b11100 /
b11100 3
b11100 L
b11100 :"
b11100 a"
b0 [
b0 t
b0 |
b0 H"
b1000 ]
1$
#75
0$
#80
b101 \
b101 d
b101 e
b101 p
b101 j
1F
bx R
bx r
bx }
bx R"
bx Q
bx b
bx m
bx q
0W
b10 c
b10 i
b10 n
b1xx00000100 o
b11 $"
b11 N"
b11 z"
b11 #"
b11 ]"
b11 x"
b0 S
b0 0"
b0 ^"
b0 &#
b11111111111111111111111111111100 M"
b100 ("
b100 Y"
b100 _"
b100 o"
b100 t"
b1100 +"
b1100 v"
b111 *"
b111 u"
bx /"
bx Q"
bx T"
b1000 2"
b1000 L"
b1000 P"
b1000 K"
b1011 %"
b1011 O"
b1011 W"
b11 q"
b100 r"
b100 )"
b11 =
b11 '"
b11 !#
b100 ;
b100 &"
b100 ##
b1000001101000100 S"
b10 ^
b10 g
b110011 `
b110011 k
b100100 ."
b100100 i"
b100000010001100011 )
b100000010001100011 .
b100000010001100011 2
b100000010001100011 ~
b1 [
b1 t
b1 |
b1 H"
1u
0x
b10100 >"
b10100 m"
b101 G
b101 C"
b101 s"
b101 ~"
b100 5"
b100 k"
b11000 ="
b1011 #
b1011 *
b1011 -
b1011 1
b1011 Z
b1011 4"
b1011 V"
b1011 \"
b11100 <"
b1001000 ,"
b1001000 f"
b1001000 h"
b110000 6"
b110000 e"
b110000 y"
b10000 I
b10000 A"
b10000 |"
b111 :
b111 F"
b111 $#
b11000 9"
b11000 d"
b11 @"
b11 ["
b100000 ;"
b11100 8"
b10000011010001000110011 P
b10000011010001000110011 7"
b100100 -"
b100100 c"
b100100 g"
b100000 (
b100000 /
b100000 3
b100000 L
b100000 :"
b100000 a"
b1001 ]
1$
#85
0$
#90
b1000 /"
b1000 Q"
b1000 T"
0F
b10 R
b10 r
b10 }
b10 R"
b10 Q
b10 b
b10 m
b10 q
1W
b1 c
b1 i
b1 n
b1000001010 o
b11111111111111111111111111111000 M"
b111 $"
b111 N"
b111 z"
b1011 ("
b1011 Y"
b1011 _"
b1011 o"
b1011 t"
b111 #"
b111 ]"
b111 x"
b111 +"
b111 v"
b0 *"
b0 u"
b1 \
b1 d
b1 e
b1 p
b1 j
b0 T
b0 1"
b0 X"
b0 '#
b101 K"
b1100 %"
b1100 O"
b1100 W"
b100 q"
b0 r"
b1000 )"
b100 =
b100 '"
b100 !#
b0 ;
b0 &"
b0 ##
b10000001000 S"
b0 ^
b0 g
b1100011 `
b1100011 k
b101000 ."
b101000 i"
b1010010011 )
b1010010011 .
b1010010011 2
b1010010011 ~
16
b0 2"
b0 L"
b0 P"
b11000 >"
b11000 m"
b1011 5"
b1011 k"
b11100 ="
b10000 H
b10000 B"
b10000 }"
b11 !
b11 &
b11 ,
b11 5
b11 7
b11 G"
b1000 #
b1000 *
b1000 -
b1000 1
b1000 Z
b1000 4"
b1000 V"
b1000 \"
b100000 <"
bx 6"
bx e"
bx y"
b100 I
b100 A"
b100 |"
b100 :
b100 F"
b100 $#
b11 <
b11 E"
b11 "#
bx ,"
bx f"
bx h"
b11100 9"
b11100 d"
b111 @"
b111 ["
b1100 ?"
b1100 U"
b100100 ;"
b100000 8"
b100000010001100011 P
b100000010001100011 7"
b101000 -"
b101000 c"
b101000 g"
b100100 (
b100100 /
b100100 3
b100100 L
b100100 :"
b100100 a"
0D
0E
b101 [
b101 t
b101 |
b101 H"
0u
1x
b1010 ]
1$
#95
0$
#100
b0 \
b0 d
b0 e
b0 p
b0 j
1F
b0 R
b0 r
b0 }
b0 R"
b0 Q
b0 b
b0 m
b0 q
1Y
0W
b10 c
b10 i
b10 n
b10010000100 o
b11111111111111111111111111111111 M"
1U
b0 $"
b0 N"
b0 z"
1V
1J
1K
b1000 ("
b1000 Y"
b1000 _"
b1000 o"
b1000 t"
b10 T
b10 1"
b10 X"
b10 '#
b0 #"
b0 ]"
b0 x"
b0 K"
b0 %"
b0 O"
b0 W"
b0 +"
b0 v"
b0 /"
b0 Q"
b0 T"
0h
16
b0 2"
b0 L"
b0 P"
b0 q"
b101 )"
b0 =
b0 '"
b0 !#
b101 S"
b10011 `
b10011 k
b101000 ."
b101000 i"
b1000111010001000110011 )
b1000111010001000110011 .
b1000111010001000110011 2
b1000111010001000110011 ~
0B
0C
1D
1E
b1 [
b1 t
b1 |
b1 H"
1u
0x
b11100 >"
b11100 m"
b10000 G
b10000 C"
b10000 s"
b10000 ~"
b1000 5"
b1000 k"
b100000 ="
b100 H
b100 B"
b100 }"
b111 !
b111 &
b111 ,
b111 5
b111 7
b111 G"
b0 #
b0 *
b0 -
b0 1
b0 Z
b0 4"
b0 V"
b0 \"
b100100 <"
b101000 ,"
b101000 f"
b101000 h"
b1000 6"
b1000 e"
b1000 y"
b1000 I
b1000 A"
b1000 |"
b0 :
b0 F"
b0 $#
b100 <
b100 E"
b100 "#
b100000 9"
b100000 d"
b0 @"
b0 ["
b111 ?"
b111 U"
b101000 ;"
b100100 8"
b1010010011 P
b1010010011 7"
b101100 -"
b101100 c"
b101100 g"
b101000 (
b101000 /
b101000 3
b101000 L
b101000 :"
b101000 a"
b1011 ]
1$
#105
0$
#110
0F
0Y
b0 c
b0 i
b0 n
b0 o
0J"
0U
b0 ("
b0 Y"
b0 _"
b0 o"
b0 t"
b0 M"
0V
0J
0K
b0 T
b0 1"
b0 X"
b0 '#
b101100 ."
b101100 i"
b0 )"
b0 S"
b0 `
b0 k
16
b0 2"
b0 L"
b0 P"
b0 K"
b100000 >"
b100000 m"
b100 G
b100 C"
b100 s"
b100 ~"
b0 5"
b0 k"
b100100 ="
b1000 H
b1000 B"
b1000 }"
b0 !
b0 &
b0 ,
b0 5
b0 7
b0 G"
b0 <"
b0 6"
b0 e"
b0 y"
b0 I
b0 A"
b0 |"
b0 <
b0 E"
b0 "#
b0 ,"
b0 f"
b0 h"
b0 9"
b0 d"
b0 ?"
b0 U"
b0 ;"
b0 8"
b0 P
b0 7"
1B
1C
0D
0E
1X
b0 [
b0 t
b0 |
b0 H"
0u
1x
b1100 ]
1$
#115
0$
#120
b101 \
b101 d
b101 e
b101 p
b101 j
1F
bx R
bx r
bx }
bx R"
bx Q
bx b
bx m
bx q
b10 c
b10 i
b10 n
b1xx00000100 o
b11 +"
b11 v"
b101 *"
b101 u"
bx /"
bx Q"
bx T"
1h
b111 q"
b10 r"
b100 )"
b111 =
b111 '"
b111 !#
b10 ;
b10 &"
b10 ##
b100011101000100 S"
b10 ^
b10 g
b110011 `
b110011 k
b110000 ."
b110000 i"
b10100100000001110110011 )
b10100100000001110110011 .
b10100100000001110110011 2
b10100100000001110110011 ~
0B
0C
1D
1E
0X
0x
b100100 >"
b100100 m"
b1000 G
b1000 C"
b1000 s"
b1000 ~"
b0 ="
b0 H
b0 B"
b0 }"
b101100 ;"
b101000 8"
b1000111010001000110011 P
b1000111010001000110011 7"
b110000 -"
b110000 c"
b110000 g"
b101100 (
b101100 /
b101100 3
b101100 L
b101100 :"
b101100 a"
b1101 ]
1$
#125
0$
#130
06
b1 2"
b1 L"
b1 P"
b101 $"
b101 N"
b101 z"
b101 #"
b101 ]"
b101 x"
b11 %"
b11 O"
b11 W"
b0 +"
b0 v"
b1011 *"
b1011 u"
b0 \
b0 d
b0 e
b0 p
b0 j
b11111111111111111111111111111010 M"
b100 q"
b101 r"
b111 )"
b100 =
b100 '"
b100 !#
b101 ;
b101 &"
b101 ##
b1010010000000111 S"
b0 ^
b0 g
b110100 ."
b110100 i"
b1000000001000111000001110110011 )
b1000000001000111000001110110011 .
b1000000001000111000001110110011 2
b1000000001000111000001110110011 ~
b11111111111111111111111111111110 K"
b0 >"
b0 m"
b0 G
b0 C"
b0 s"
b0 ~"
b101100 <"
bx 6"
bx e"
bx y"
b100 I
b100 A"
b100 |"
b10 :
b10 F"
b10 $#
b111 <
b111 E"
b111 "#
bx ,"
bx f"
bx h"
b101000 9"
b101000 d"
b101 @"
b101 ["
b11 ?"
b11 U"
b110000 ;"
b101100 8"
b10100100000001110110011 P
b10100100000001110110011 7"
b110100 -"
b110100 c"
b110100 g"
b110000 (
b110000 /
b110000 3
b110000 L
b110000 :"
b110000 a"
1B
1C
0D
0E
b101 [
b101 t
b101 |
b101 H"
1x
b1110 ]
1$
#135
0$
